{
  "hello": "Hello",
  "world": "world",
  "introduce": {
    "title": "I will introduce myself to you",
    "content": [
      "TODO: Lorem, ipsum dolor sit amet consectetur adipisicing elit. Ipsam, consectetur! Mollitia quaerat vel at labore a ut, cumque corporis consectetur omnis voluptatibus, unde temporibus nostrum debitis harum quisquam maiores deserunt.",
      "TODO: Lorem ipsum dolor sit amet consectetur adipisicing elit. Repudiandae maxime labore natus eos consequuntur deleniti delectus. Sit error similique quaerat in labore tempore. Molestiae fugiat ab eaque, earum facilis dolorem!"
    ]
  },
  "skills": {
    "title": "Knowledge and skills",
    "javascript": "Intermediate work with Vanilla.js <i> (ES6 and newer) </i>.",
    "vue": "Junior Vue.js programmer.",
    "node": "Node.js not just as a tool.",
    "typescript": "Intermediate knowledge of TypeScript.",
    "sass": "Basic knowledge of Sass.",
    "git": "Git basically only through the CLI.",
    "nginx": "NGINX basics necessary to deploy my projects.",
    "docker": "TODO: Docker",
    "": ""
  }
}
