{
  "title": "Pozdravte&nbsp;mne!",
  "contacts": [
    "Nalézt mne můžete na&nbsp;platformách ",
    "<a target='_blank' href='https://github.com/MWarCZ'>GitHub</a>, ",
    "<a target='_blank' href='https://gitlab.com/MWarCZ'>GitLab</a> ",
    "a&nbsp;<a target='_blank' href='https://www.linkedin.com/in/miroslav-valka/'>LinkedIn</a>."
  ],
  "sendEmail": "Nebo mi můžete poslat email&nbsp;na:",
  "clipboard": {
    "tooltip": "Zkopírovat do schránky"
  },
  "joke": "(Od reálných lidí sotva něco dostanu, takže Vaše zpráva jistě vynikne.)"
}
